module gitlab.com/vitus133/adcd

go 1.19

require (
	github.com/prometheus/client_golang v1.14.0
	gonum.org/v1/gonum v0.12.0
	gopkg.in/yaml.v2 v2.4.0
	periph.io/x/conn/v3 v3.7.0
	periph.io/x/devices/v3 v3.7.0
	periph.io/x/host/v3 v3.8.0
)

require (
	github.com/beorn7/perks v1.0.1 // indirect
	github.com/cespare/xxhash/v2 v2.1.2 // indirect
	github.com/golang/protobuf v1.5.2 // indirect
	github.com/matttproud/golang_protobuf_extensions v1.0.1 // indirect
	github.com/prometheus/client_model v0.3.0 // indirect
	github.com/prometheus/common v0.37.0 // indirect
	github.com/prometheus/procfs v0.8.0 // indirect
	golang.org/x/sys v0.1.0 // indirect
	google.golang.org/protobuf v1.28.1 // indirect
)
